module gitlab.com/damara/pretest-priviid

go 1.13

require (
	github.com/dgrijalva/jwt-go v3.2.0+incompatible
	github.com/gofrs/uuid v4.0.0+incompatible // indirect
	github.com/google/uuid v1.2.0 // indirect
	github.com/jinzhu/gorm v1.9.16
	github.com/joho/godotenv v1.3.0 // indirect
	github.com/konsorten/go-windows-terminal-sequences v1.0.1 // indirect
	github.com/labstack/echo v3.3.10+incompatible
	github.com/labstack/gommon v0.3.0 // indirect
	github.com/mattn/go-sqlite3 v2.0.1+incompatible // indirect
	github.com/rs/zerolog v1.20.0
	github.com/sirupsen/logrus v1.7.0 // indirect
	github.com/stretchr/objx v0.1.1 // indirect
	github.com/valyala/fasttemplate v1.2.1 // indirect
	github.com/zenazn/goji v0.9.0 // indirect
	golang.org/x/crypto v0.0.0-20201221181555-eec23a3978ad // indirect
	golang.org/x/sys v0.0.0-20210122235752-a8b976e07c7b // indirect
	google.golang.org/appengine v1.4.0 // indirect
)
